STAT656: Introductory Flight Example
…
##  Conflicts  tidyverse_conflicts() 
##  dplyr::filter() masks stats::filter()
##  dplyr::lag()    masks stats::lag()

Note that here Ive used conditionals

The tibble data structure

If we have a data.frame, we can usually convert it to a tibble by doing:

flightDataTB = as_tibble(flightData)
flightDataTB

## # A tibble: 570,118 x 9
##    DAY_OF_MONTH ORIGIN_AIRPORT_ ORIGIN_AIRPORT_ ORIGIN_CITY_MAR ORIGIN
##           <int>            <int>            <int>            <int> <chr> 
##  1            1            11618          1161802            31703 EWR   
##  2            1            12889          1288903            32211 LAS   
##  3            1            14908          1490803            32575 SNA   
##  4            1            14635          1463502            31714 RSW   
##  5            1            13930          1393006            30977 ORD   
##  6            1            13930          1393006            30977 ORD   
##  7            1            12266          1226603            31453 IAH   
##  8            1            11292          1129202            30325 DEN   
##  9            1            14893          1489302            33192 SMF   
## 10            1            14524          1452401            34524 RIC   
## #  with 570,108 more rows, and 4 more variables: DEP_DELAY <dbl>,
## #   DEP_DELAY_NEW <dbl>, DEP_DEL15 <dbl>, X <lgl>
…
names(flightDataTB)

## [1] "DAY_OF_MONTH"          "ORIGIN_AIRPORT_ID"     "ORIGIN_AIRPORT_SEQ_ID"
## [4] "ORIGIN_CITY_MARKET_ID" "ORIGIN"                "DEP_DELAY"            
## [7] "DEP_DELAY_NEW"         "DEP_DEL15"             "X9"

flightDataTB

## # A tibble: 570,118 x 9
##    DAY_OF_MONTH ORIGIN_AIRPORT_ ORIGIN_AIRPORT_ ORIGIN_CITY_MAR ORIGIN
##           <dbl>            <dbl>            <dbl>            <dbl> <chr> 
##  1            1            11618          1161802            31703 EWR   
##  2            1            12889          1288903            32211 LAS   
##  3            1            14908          1490803            32575 SNA   
##  4            1            14635          1463502            31714 RSW   
##  5            1            13930          1393006            30977 ORD   
##  6            1            13930          1393006            30977 ORD   
##  7            1            12266          1226603            31453 IAH   
##  8            1            11292          1129202            30325 DEN   
##  9            1            14893          1489302            33192 SMF   
## 10            1            14524          1452401            34524 RIC   
## #  with 570,108 more rows, and 4 more variables: DEP_DELAY <dbl>,
## #   DEP_DELAY_NEW <dbl>, DEP_DEL15 <dbl>, X9 <lgl>
…
